cpu/singlecycle.vcd
$date
	Wed Nov 16 22:42:48 2022
$end
$version
	Icarus Verilog
$end
$timescale
	1ps
$end
$scope module SingleCycleProcTest_v $end
$var wire 64 ! currentPC [63:0] $end
$var wire 64 " MemtoRegOut [63:0] $end
$var reg 1 # CLK $end
$var reg 1 $ Reset_L $end
$var reg 8 % passed [7:0] $end
$var reg 64 & startPC [63:0] $end
$var reg 16 ' watchdog [15:0] $end
$scope module uut $end
$var wire 1 # CLK $end
$var wire 1 $ resetl $end
$var wire 64 ( startpc [63:0] $end
$var wire 1 ) toBranch $end
$var wire 1 * zero $end
$var wire 1 + uncond_branch $end
$var wire 3 , signop [2:0] $end
$var wire 64 - sigExtMUXB [63:0] $end
$var wire 5 . rn [4:0] $end
$var wire 5 / rm [4:0] $end
$var wire 1 0 regwrite $end
$var wire 64 1 regoutB [63:0] $end
$var wire 64 2 regoutA [63:0] $end
$var wire 1 3 reg2loc $end
$var wire 64 4 readData [63:0] $end
$var wire 5 5 rd [4:0] $end
$var wire 64 6 pcAddSigExt [63:0] $end
$var wire 64 7 pcAdd4 [63:0] $end
$var wire 11 8 opcode [10:0] $end
$var wire 64 9 nextpc [63:0] $end
$var wire 2 : movzOp [1:0] $end
$var wire 1 ; memwrite $end
$var wire 1 < memread $end
$var wire 1 = mem2reg $end
$var wire 32 > instruction [31:0] $end
$var wire 26 ? inSigExt [25:0] $end
$var wire 64 @ extimm [63:0] $end
$var wire 1 A branch $end
$var wire 1 B alusrc $end
$var wire 64 C aluout [63:0] $end
$var wire 4 D aluctrl [3:0] $end
$var wire 64 E MemtoRegOut [63:0] $end
$var reg 64 F currentpc [63:0] $end
$scope module alu $end
$var wire 64 G BusB [63:0] $end
$var wire 1 * Zero $end
$var wire 64 H BusA [63:0] $end
$var wire 4 I ALUCtrl [3:0] $end
$var reg 64 J BusW [63:0] $end
$upscope $end
$scope module control $end
$var wire 11 K opcode [10:0] $end
$var reg 4 L aluop [3:0] $end
$var reg 1 B alusrc $end
$var reg 1 A branch $end
$var reg 1 = mem2reg $end
$var reg 1 < memread $end
$var reg 1 ; memwrite $end
$var reg 1 3 reg2loc $end
$var reg 1 0 regwrite $end
$var reg 3 M signop [2:0] $end
$var reg 1 + uncond_branch $end
$upscope $end
$scope module dmem $end
$var wire 64 N Address [63:0] $end
$var wire 1 # Clock $end
$var wire 1 < MemoryRead $end
$var wire 1 ; MemoryWrite $end
$var wire 64 O WriteData [63:0] $end
$var reg 64 P ReadData [63:0] $end
$scope task initset $end
$var reg 64 Q addr [63:0] $end
$var reg 64 R data [63:0] $end
$upscope $end
$upscope $end
$scope module imem $end
$var wire 64 S Address [63:0] $end
$var reg 32 T Data [31:0] $end
$upscope $end
$scope module next $end
$var wire 1 * ALUZero $end
$var wire 1 A Branch $end
$var wire 64 U CurrentPC [63:0] $end
$var wire 1 + Uncondbranch $end
$var wire 64 V SignExtImm64 [63:0] $end
$var reg 64 W NextPC [63:0] $end
$upscope $end
$scope module regfile $end
$var wire 64 X BusW [63:0] $end
$var wire 1 # Clk $end
$var wire 5 Y RA [4:0] $end
$var wire 5 Z RB [4:0] $end
$var wire 5 [ RW [4:0] $end
$var wire 1 0 RegWr $end
$var wire 64 \ BusB [63:0] $end
$var wire 64 ] BusA [63:0] $end
$upscope $end
$scope module sigext $end
$var wire 3 ^ Ctrl [2:0] $end
$var wire 26 _ In [25:0] $end
$var wire 2 ` Op [1:0] $end
$var wire 1 a extBit $end
$var wire 64 b BusImm [63:0] $end
$upscope $end
$upscope $end
$scope task allPassed $end
$var reg 8 c numTests [7:0] $end
$var reg 8 d passed [7:0] $end
$upscope $end
$scope task passTest $end
$var reg 64 e actualOut [63:0] $end
$var reg 64 f expectedOut [63:0] $end
$var reg 8 g passed [7:0] $end
$var reg 257 h testType [256:0] $end
$upscope $end
$upscope $end
$enddefinitions $end
#0
$dumpvars
bx h
bx g
bx f
bx e
bx d
bx c
bx b
xa
bx `
bx _
bx ^
bx ]
bx \
bx [
bx Z
bx Y
bx X
bx W
bx V
bx U
bx T
bx S
b0 R
b100000 Q
bx P
bx O
bx N
bx M
bx L
bx K
bx J
bx I
bx H
bx G
bx F
bx E
bx D
bx C
xB
xA
bx @
bx ?
bx >
x=
x<
x;
bx :
bx 9
bx 8
bx 7
bx 6
bx 5
bx 4
x3
bx 2
bx 1
x0
bx /
bx .
bx -
bx ,
x+
x*
x)
b0 (
b0 '
b0 &
b0 %
1$
0#
bx "
bx !
$end
#60000
1#
#120000
b1 '
0#
#121000
0$
#180000
1#
#240000
b10 '
0#
#243000
b0 -
b0 G
b0 @
b0 V
b0 b
0)
0a
b1 ,
b1 M
b1 ^
b10 D
b10 I
b10 L
10
1B
0;
1=
1<
0A
0+
b0x00x .
b0x00x Z
b10 :
b10 `
b10000000000001111101001 ?
b10000000000001111101001 _
b11111000010 8
b11111000010 K
b11111 /
b11111 Y
b1001 5
b1001 [
b11111000010000000000001111101001 >
b11111000010000000000001111101001 T
b0 !
b0 F
b0 S
b0 U
#245000
b100 6
b1000 7
b100 9
b100 W
1*
b0 C
b0 J
b0 N
b0 2
b0 H
b0 ]
#300000
b1 "
b1 E
b1 X
b1 4
b1 P
1$
1#
#360000
b11 '
0#
#363000
0*
b1000 C
b1000 J
b1000 N
b100100 6
b1000 -
b1000 G
b1000 @
b1000 V
b1000 b
b0x0x0 .
b0x0x0 Z
b10000001000001111101010 ?
b10000001000001111101010 _
b1010 5
b1010 [
b11111000010000001000001111101010 >
b11111000010000001000001111101010 T
b100 !
b100 F
b100 S
b100 U
#365000
b101000 6
b1100 7
b1000 9
b1000 W
#420000
b1010 "
b1010 E
b1010 X
b1010 4
b1010 P
1#
#480000
b100 '
0#
#483000
b10000 C
b10000 J
b10000 N
b1001000 6
b10000 -
b10000 G
b10000 @
b10000 V
b10000 b
b0x0x1 .
b0x0x1 Z
b10000010000001111101011 ?
b10000010000001111101011 _
b1011 5
b1011 [
b11111000010000010000001111101011 >
b11111000010000010000001111101011 T
b1000 !
b1000 F
b1000 S
b1000 U
#485000
b1001100 6
b10000 7
b1100 9
b1100 W
#540000
b101 "
b101 E
b101 X
b101 4
b101 P
1#
#600000
b101 '
0#
#603000
b11000 C
b11000 J
b11000 N
b1101100 6
b11000 -
b11000 G
b11000 @
b11000 V
b11000 b
b0xx0x .
b0xx0x Z
b10000011000001111101100 ?
b10000011000001111101100 _
b1100 5
b1100 [
b11111000010000011000001111101100 >
b11111000010000011000001111101100 T
b1100 !
b1100 F
b1100 S
b1100 U
#605000
b1110000 6
b10100 7
b10000 9
b10000 W
#660000
b111111111011111010100111110111101010110110111110111011111111 "
b111111111011111010100111110111101010110110111110111011111111 E
b111111111011111010100111110111101010110110111110111011111111 X
b111111111011111010100111110111101010110110111110111011111111 4
b111111111011111010100111110111101010110110111110111011111111 P
1#
#720000
b110 '
0#
#723000
b100000 C
b100000 J
b100000 N
b10010000 6
b100000 -
b100000 G
b100000 @
b100000 V
b100000 b
b0xxxx .
b0xxxx Z
b10000100000001111101101 ?
b10000100000001111101101 _
b1101 5
b1101 [
b11111000010000100000001111101101 >
b11111000010000100000001111101101 T
b10000 !
b10000 F
b10000 S
b10000 U
#725000
b10010100 6
b11000 7
b10100 9
b10100 W
#780000
b0 "
b0 E
b0 X
b0 4
b0 P
1#
#840000
b111 '
0#
#843000
bx 6
x*
bx0x0 @
bx0x0 V
bx0x0 b
xa
bx C
bx J
bx N
bx -
bx G
bx "
bx E
bx X
bx ,
bx M
bx ^
b1 D
b1 I
b1 L
0B
0=
0<
03
b1011 .
b1011 Z
b0 :
b0 `
b10000010110000000101001010 ?
b10000010110000000101001010 _
b10101010000 8
b10101010000 K
b1010 /
b1010 Y
b1010 5
b1010 [
b10101010000010110000000101001010 >
b10101010000010110000000101001010 T
b10100 !
b10100 F
b10100 S
b10100 U
#845000
b11100 7
b11000 9
b11000 W
0*
b1111 "
b1111 E
b1111 X
b101 -
b101 G
b1111 C
b1111 J
b1111 N
b101 1
b101 O
b101 \
b1010 2
b1010 H
b1010 ]
#900000
1#
#960000
b1000 '
0#
#963000
1*
bx0x0xx00 @
bx0x0xx00 V
bx0x0xx00 b
b0 "
b0 E
b0 X
b0 C
b0 J
b0 N
b0 D
b0 I
b0 L
b1010 .
b1010 Z
b10000010100000000110001100 ?
b10000010100000000110001100 _
b10001010000 8
b10001010000 K
b1100 /
b1100 Y
b1100 5
b1100 [
b10001010000010100000000110001100 >
b10001010000010100000000110001100 T
b11000 !
b11000 F
b11000 S
b11000 U
#965000
b100000 7
b11100 9
b11100 W
0*
b1111 "
b1111 E
b1111 X
b1111 -
b1111 G
b1111 C
b1111 J
b1111 N
b1111 1
b1111 O
b1111 \
b111111111011111010100111110111101010110110111110111011111111 2
b111111111011111010100111110111101010110110111110111011111111 H
b111111111011111010100111110111101010110110111110111011111111 ]
#1020000
1#
#1080000
b1001 '
0#
#1083000
b101100 6
b100 @
b100 V
b100 b
0a
b0xxxx "
b0xxxx E
b0xxxx X
b11 ,
b11 M
b11 ^
b111 D
b111 I
b111 L
00
x=
1A
13
b1100 .
b1100 Z
b10001100 ?
b10001100 _
b10110100000 8
b10110100000 K
b100 /
b100 Y
b10110100000000000000000010001100 >
b10110100000000000000000010001100 T
b11100 !
b11100 F
b11100 S
b11100 U
#1085000
b110000 6
b100100 7
b100000 9
b100000 W
bx 2
bx H
bx ]
#1140000
1#
#1200000
b1010 '
0#
#1203000
bx 6
x*
bx0x @
bx0x V
bx0x b
xa
bx C
bx J
bx N
bx "
bx E
bx X
bz ,
bz M
bz ^
b10 D
b10 I
b10 L
10
0=
0A
03
b1001 .
b1001 Z
b11000010010000000110101101 ?
b11000010010000000110101101 _
b10001011000 8
b10001011000 K
b1101 /
b1101 Y
b1101 5
b1101 [
b10001011000010010000000110101101 >
b10001011000010010000000110101101 T
b100000 !
b100000 F
b100000 S
b100000 U
#1205000
b101000 7
b100100 9
b100100 W
0*
b1 "
b1 E
b1 X
b1 -
b1 G
b1 C
b1 J
b1 N
b1 1
b1 O
b1 \
b0 2
b0 H
b0 ]
#1260000
1#
#1320000
b1011 '
0#
#1323000
bx0xxx00 @
bx0xxx00 V
bx0xxx00 b
b1111111111111111111111111111111111111111111111111111111111111111 "
b1111111111111111111111111111111111111111111111111111111111111111 E
b1111111111111111111111111111111111111111111111111111111111111111 X
b1111111111111111111111111111111111111111111111111111111111111111 C
b1111111111111111111111111111111111111111111111111111111111111111 J
b1111111111111111111111111111111111111111111111111111111111111111 N
bx ,
bx M
bx ^
b110 D
b110 I
b110 L
b11000010010000000110001100 ?
b11000010010000000110001100 _
b11001011000 8
b11001011000 K
b1100 /
b1100 Y
b1100 5
b1100 [
b11001011000010010000000110001100 >
b11001011000010010000000110001100 T
b100100 !
b100100 F
b100100 S
b100100 U
#1325000
b101100 7
b101000 9
b101000 W
b1110 "
b1110 E
b1110 X
b1110 C
b1110 J
b1110 N
b1111 2
b1111 H
b1111 ]
#1380000
1#
#1440000
b1100 '
0#
#1443000
b11100 6
b1111111111111111111111111111111111111111111111111111111111111101 @
b1111111111111111111111111111111111111111111111111111111111111101 V
b1111111111111111111111111111111111111111111111111111111111111101 b
1a
bx01 -
bx01 G
b0xxx0 "
b0xxx0 E
b0xxx0 X
1)
b10 ,
b10 M
b10 ^
bx D
bx I
bx L
00
xB
x=
xA
1+
x3
b111x1 .
b111x1 Z
b11 :
b11 `
b11111111111111111111111101 ?
b11111111111111111111111101 _
b10111111 8
b10111111 K
b11111 /
b11111 Y
b11101 5
b11101 [
b10111111111111111111111111101 >
b10111111111111111111111111101 T
b101000 !
b101000 F
b101000 S
b101000 U
#1445000
b100000 6
b110000 7
b101100 9
b101100 W
bx -
bx G
bx 1
bx O
bx \
b0 2
b0 H
b0 ]
#1446000
b10000 6
b100000 7
b11100 9
b11100 W
#1500000
1#
#1560000
b1101 '
0#
#1563000
b101100 6
b100 @
b100 V
b100 b
0a
x*
bx "
bx E
bx X
bx C
bx J
bx N
x)
b11 ,
b11 M
b11 ^
b111 D
b111 I
b111 L
0B
1A
0+
13
b1100 .
b1100 Z
b0 :
b0 `
b10001100 ?
b10001100 _
b10110100000 8
b10110100000 K
b100 /
b100 Y
b1100 5
b1100 [
b10110100000000000000000010001100 >
b10110100000000000000000010001100 T
b11100 !
b11100 F
b11100 S
b11100 U
#1565000
b110000 6
b100100 7
b100000 9
b100000 W
0)
0*
b0xxx0 "
b0xxx0 E
b0xxx0 X
b1110 C
b1110 J
b1110 N
b1110 -
b1110 G
b1110 1
b1110 O
b1110 \
bx 2
bx H
bx ]
#1566000
b100000 6
b10100 7
b10000 9
b10000 W
#1567000
b110000 6
b100100 7
b100000 9
b100000 W
#1620000
1#
#1680000
b1110 '
0#
#1683000
bx 6
x*
bx0x @
bx0x V
bx0x b
xa
bx C
bx J
bx N
bx "
bx E
bx X
bz ,
bz M
bz ^
b10 D
b10 I
b10 L
10
0=
0A
03
b1001 .
b1001 Z
b11000010010000000110101101 ?
b11000010010000000110101101 _
b10001011000 8
b10001011000 K
b1101 /
b1101 Y
b1101 5
b1101 [
b10001011000010010000000110101101 >
b10001011000010010000000110101101 T
b100000 !
b100000 F
b100000 S
b100000 U
#1685000
b101000 7
b100100 9
b100100 W
0*
b10 "
b10 E
b10 X
b1 -
b1 G
b10 C
b10 J
b10 N
b1 1
b1 O
b1 \
b1 2
b1 H
b1 ]
#1740000
1#
#1800000
b1111 '
0#
#1803000
bx0xxx00 @
bx0xxx00 V
bx0xxx00 b
1*
b0 "
b0 E
b0 X
b0 C
b0 J
b0 N
bx ,
bx M
bx ^
b110 D
b110 I
b110 L
b11000010010000000110001100 ?
b11000010010000000110001100 _
b11001011000 8
b11001011000 K
b1100 /
b1100 Y
b1100 5
b1100 [
b11001011000010010000000110001100 >
b11001011000010010000000110001100 T
b100100 !
b100100 F
b100100 S
b100100 U
#1805000
b101100 7
b101000 9
b101000 W
0*
b1101 "
b1101 E
b1101 X
b1101 C
b1101 J
b1101 N
b1110 2
b1110 H
b1110 ]
#1860000
1#
#1920000
b10000 '
0#
#1923000
b11100 6
b1111111111111111111111111111111111111111111111111111111111111101 @
b1111111111111111111111111111111111111111111111111111111111111101 V
b1111111111111111111111111111111111111111111111111111111111111101 b
1a
bx01 -
bx01 G
b0xx0x "
b0xx0x E
b0xx0x X
1)
b10 ,
b10 M
b10 ^
bx D
bx I
bx L
00
xB
x=
xA
1+
x3
b111x1 .
b111x1 Z
b11 :
b11 `
b11111111111111111111111101 ?
b11111111111111111111111101 _
b10111111 8
b10111111 K
b11111 /
b11111 Y
b11101 5
b11101 [
b10111111111111111111111111101 >
b10111111111111111111111111101 T
b101000 !
b101000 F
b101000 S
b101000 U
#1925000
b100000 6
b110000 7
b101100 9
b101100 W
bx -
bx G
bx 1
bx O
bx \
b0 2
b0 H
b0 ]
#1926000
b10000 6
b100000 7
b11100 9
b11100 W
#1980000
1#
#2040000
b10001 '
0#
#2043000
b101100 6
b100 @
b100 V
b100 b
0a
x*
bx "
bx E
bx X
bx C
bx J
bx N
x)
b11 ,
b11 M
b11 ^
b111 D
b111 I
b111 L
0B
1A
0+
13
b1100 .
b1100 Z
b0 :
b0 `
b10001100 ?
b10001100 _
b10110100000 8
b10110100000 K
b100 /
b100 Y
b1100 5
b1100 [
b10110100000000000000000010001100 >
b10110100000000000000000010001100 T
b11100 !
b11100 F
b11100 S
b11100 U
#2045000
b110000 6
b100100 7
b100000 9
b100000 W
0)
0*
b0xx0x "
b0xx0x E
b0xx0x X
b1101 C
b1101 J
b1101 N
b1101 -
b1101 G
b1101 1
b1101 O
b1101 \
bx 2
bx H
bx ]
#2046000
b100000 6
b10100 7
b10000 9
b10000 W
#2047000
b110000 6
b100100 7
b100000 9
b100000 W
#2100000
1#
#2160000
b10010 '
0#
#2163000
bx 6
x*
bx0x @
bx0x V
bx0x b
xa
bx C
bx J
bx N
bx "
bx E
bx X
bz ,
bz M
bz ^
b10 D
b10 I
b10 L
10
0=
0A
03
b1001 .
b1001 Z
b11000010010000000110101101 ?
b11000010010000000110101101 _
b10001011000 8
b10001011000 K
b1101 /
b1101 Y
b1101 5
b1101 [
b10001011000010010000000110101101 >
b10001011000010010000000110101101 T
b100000 !
b100000 F
b100000 S
b100000 U
#2165000
b101000 7
b100100 9
b100100 W
0*
b11 "
b11 E
b11 X
b1 -
b1 G
b11 C
b11 J
b11 N
b1 1
b1 O
b1 \
b10 2
b10 H
b10 ]
#2220000
1#
#2280000
b10011 '
0#
#2283000
bx0xxx00 @
bx0xxx00 V
bx0xxx00 b
b1 "
b1 E
b1 X
b1 C
b1 J
b1 N
bx ,
bx M
bx ^
b110 D
b110 I
b110 L
b11000010010000000110001100 ?
b11000010010000000110001100 _
b11001011000 8
b11001011000 K
b1100 /
b1100 Y
b1100 5
b1100 [
b11001011000010010000000110001100 >
b11001011000010010000000110001100 T
b100100 !
b100100 F
b100100 S
b100100 U
#2285000
b101100 7
b101000 9
b101000 W
b1100 "
b1100 E
b1100 X
b1100 C
b1100 J
b1100 N
b1101 2
b1101 H
b1101 ]
#2340000
1#
#2400000
b10100 '
0#
#2403000
b11100 6
b1111111111111111111111111111111111111111111111111111111111111101 @
b1111111111111111111111111111111111111111111111111111111111111101 V
b1111111111111111111111111111111111111111111111111111111111111101 b
1a
bx01 -
bx01 G
b0xx00 "
b0xx00 E
b0xx00 X
1)
b10 ,
b10 M
b10 ^
bx D
bx I
bx L
00
xB
x=
xA
1+
x3
b111x1 .
b111x1 Z
b11 :
b11 `
b11111111111111111111111101 ?
b11111111111111111111111101 _
b10111111 8
b10111111 K
b11111 /
b11111 Y
b11101 5
b11101 [
b10111111111111111111111111101 >
b10111111111111111111111111101 T
b101000 !
b101000 F
b101000 S
b101000 U
#2405000
b100000 6
b110000 7
b101100 9
b101100 W
bx -
bx G
bx 1
bx O
bx \
b0 2
b0 H
b0 ]
#2406000
b10000 6
b100000 7
b11100 9
b11100 W
#2460000
1#
#2520000
b10101 '
0#
#2523000
b101100 6
b100 @
b100 V
b100 b
0a
x*
bx "
bx E
bx X
bx C
bx J
bx N
x)
b11 ,
b11 M
b11 ^
b111 D
b111 I
b111 L
0B
1A
0+
13
b1100 .
b1100 Z
b0 :
b0 `
b10001100 ?
b10001100 _
b10110100000 8
b10110100000 K
b100 /
b100 Y
b1100 5
b1100 [
b10110100000000000000000010001100 >
b10110100000000000000000010001100 T
b11100 !
b11100 F
b11100 S
b11100 U
#2525000
b110000 6
b100100 7
b100000 9
b100000 W
0)
0*
b0xx00 "
b0xx00 E
b0xx00 X
b1100 C
b1100 J
b1100 N
b1100 -
b1100 G
b1100 1
b1100 O
b1100 \
bx 2
bx H
bx ]
#2526000
b100000 6
b10100 7
b10000 9
b10000 W
#2527000
b110000 6
b100100 7
b100000 9
b100000 W
#2580000
1#
#2640000
b10110 '
0#
#2643000
bx 6
x*
bx0x @
bx0x V
bx0x b
xa
bx C
bx J
bx N
bx "
bx E
bx X
bz ,
bz M
bz ^
b10 D
b10 I
b10 L
10
0=
0A
03
b1001 .
b1001 Z
b11000010010000000110101101 ?
b11000010010000000110101101 _
b10001011000 8
b10001011000 K
b1101 /
b1101 Y
b1101 5
b1101 [
b10001011000010010000000110101101 >
b10001011000010010000000110101101 T
b100000 !
b100000 F
b100000 S
b100000 U
#2645000
b101000 7
b100100 9
b100100 W
0*
b100 "
b100 E
b100 X
b1 -
b1 G
b100 C
b100 J
b100 N
b1 1
b1 O
b1 \
b11 2
b11 H
b11 ]
#2700000
1#
#2760000
b10111 '
0#
#2763000
bx0xxx00 @
bx0xxx00 V
bx0xxx00 b
b10 "
b10 E
b10 X
b10 C
b10 J
b10 N
bx ,
bx M
bx ^
b110 D
b110 I
b110 L
b11000010010000000110001100 ?
b11000010010000000110001100 _
b11001011000 8
b11001011000 K
b1100 /
b1100 Y
b1100 5
b1100 [
b11001011000010010000000110001100 >
b11001011000010010000000110001100 T
b100100 !
b100100 F
b100100 S
b100100 U
#2765000
b101100 7
b101000 9
b101000 W
b1011 "
b1011 E
b1011 X
b1011 C
b1011 J
b1011 N
b1100 2
b1100 H
b1100 ]
#2820000
1#
#2880000
b11000 '
0#
#2883000
b11100 6
b1111111111111111111111111111111111111111111111111111111111111101 @
b1111111111111111111111111111111111111111111111111111111111111101 V
b1111111111111111111111111111111111111111111111111111111111111101 b
1a
bx01 -
bx01 G
b0x0xx "
b0x0xx E
b0x0xx X
1)
b10 ,
b10 M
b10 ^
bx D
bx I
bx L
00
xB
x=
xA
1+
x3
b111x1 .
b111x1 Z
b11 :
b11 `
b11111111111111111111111101 ?
b11111111111111111111111101 _
b10111111 8
b10111111 K
b11111 /
b11111 Y
b11101 5
b11101 [
b10111111111111111111111111101 >
b10111111111111111111111111101 T
b101000 !
b101000 F
b101000 S
b101000 U
#2885000
b100000 6
b110000 7
b101100 9
b101100 W
bx -
bx G
bx 1
bx O
bx \
b0 2
b0 H
b0 ]
#2886000
b10000 6
b100000 7
b11100 9
b11100 W
#2940000
1#
#3000000
b11001 '
0#
#3003000
b101100 6
b100 @
b100 V
b100 b
0a
x*
bx "
bx E
bx X
bx C
bx J
bx N
x)
b11 ,
b11 M
b11 ^
b111 D
b111 I
b111 L
0B
1A
0+
13
b1100 .
b1100 Z
b0 :
b0 `
b10001100 ?
b10001100 _
b10110100000 8
b10110100000 K
b100 /
b100 Y
b1100 5
b1100 [
b10110100000000000000000010001100 >
b10110100000000000000000010001100 T
b11100 !
b11100 F
b11100 S
b11100 U
#3005000
b110000 6
b100100 7
b100000 9
b100000 W
0)
0*
b0x0xx "
b0x0xx E
b0x0xx X
b1011 C
b1011 J
b1011 N
b1011 -
b1011 G
b1011 1
b1011 O
b1011 \
bx 2
bx H
bx ]
#3006000
b100000 6
b10100 7
b10000 9
b10000 W
#3007000
b110000 6
b100100 7
b100000 9
b100000 W
#3060000
1#
#3120000
b11010 '
0#
#3123000
bx 6
x*
bx0x @
bx0x V
bx0x b
xa
bx C
bx J
bx N
bx "
bx E
bx X
bz ,
bz M
bz ^
b10 D
b10 I
b10 L
10
0=
0A
03
b1001 .
b1001 Z
b11000010010000000110101101 ?
b11000010010000000110101101 _
b10001011000 8
b10001011000 K
b1101 /
b1101 Y
b1101 5
b1101 [
b10001011000010010000000110101101 >
b10001011000010010000000110101101 T
b100000 !
b100000 F
b100000 S
b100000 U
#3125000
b101000 7
b100100 9
b100100 W
0*
b101 "
b101 E
b101 X
b1 -
b1 G
b101 C
b101 J
b101 N
b1 1
b1 O
b1 \
b100 2
b100 H
b100 ]
#3180000
1#
#3240000
b11011 '
0#
#3243000
bx0xxx00 @
bx0xxx00 V
bx0xxx00 b
b11 "
b11 E
b11 X
b11 C
b11 J
b11 N
bx ,
bx M
bx ^
b110 D
b110 I
b110 L
b11000010010000000110001100 ?
b11000010010000000110001100 _
b11001011000 8
b11001011000 K
b1100 /
b1100 Y
b1100 5
b1100 [
b11001011000010010000000110001100 >
b11001011000010010000000110001100 T
b100100 !
b100100 F
b100100 S
b100100 U
#3245000
b101100 7
b101000 9
b101000 W
b1010 "
b1010 E
b1010 X
b1010 C
b1010 J
b1010 N
b1011 2
b1011 H
b1011 ]
#3300000
1#
#3360000
b11100 '
0#
#3363000
b11100 6
b1111111111111111111111111111111111111111111111111111111111111101 @
b1111111111111111111111111111111111111111111111111111111111111101 V
b1111111111111111111111111111111111111111111111111111111111111101 b
1a
bx01 -
bx01 G
b0x0x0 "
b0x0x0 E
b0x0x0 X
1)
b10 ,
b10 M
b10 ^
bx D
bx I
bx L
00
xB
x=
xA
1+
x3
b111x1 .
b111x1 Z
b11 :
b11 `
b11111111111111111111111101 ?
b11111111111111111111111101 _
b10111111 8
b10111111 K
b11111 /
b11111 Y
b11101 5
b11101 [
b10111111111111111111111111101 >
b10111111111111111111111111101 T
b101000 !
b101000 F
b101000 S
b101000 U
#3365000
b100000 6
b110000 7
b101100 9
b101100 W
bx -
bx G
bx 1
bx O
bx \
b0 2
b0 H
b0 ]
#3366000
b10000 6
b100000 7
b11100 9
b11100 W
#3420000
1#
#3480000
b11101 '
0#
#3483000
b101100 6
b100 @
b100 V
b100 b
0a
x*
bx "
bx E
bx X
bx C
bx J
bx N
x)
b11 ,
b11 M
b11 ^
b111 D
b111 I
b111 L
0B
1A
0+
13
b1100 .
b1100 Z
b0 :
b0 `
b10001100 ?
b10001100 _
b10110100000 8
b10110100000 K
b100 /
b100 Y
b1100 5
b1100 [
b10110100000000000000000010001100 >
b10110100000000000000000010001100 T
b11100 !
b11100 F
b11100 S
b11100 U
#3485000
b110000 6
b100100 7
b100000 9
b100000 W
0)
0*
b0x0x0 "
b0x0x0 E
b0x0x0 X
b1010 C
b1010 J
b1010 N
b1010 -
b1010 G
b1010 1
b1010 O
b1010 \
bx 2
bx H
bx ]
#3486000
b100000 6
b10100 7
b10000 9
b10000 W
#3487000
b110000 6
b100100 7
b100000 9
b100000 W
#3540000
1#
#3600000
b11110 '
0#
#3603000
bx 6
x*
bx0x @
bx0x V
bx0x b
xa
bx C
bx J
bx N
bx "
bx E
bx X
bz ,
bz M
bz ^
b10 D
b10 I
b10 L
10
0=
0A
03
b1001 .
b1001 Z
b11000010010000000110101101 ?
b11000010010000000110101101 _
b10001011000 8
b10001011000 K
b1101 /
b1101 Y
b1101 5
b1101 [
b10001011000010010000000110101101 >
b10001011000010010000000110101101 T
b100000 !
b100000 F
b100000 S
b100000 U
#3605000
b101000 7
b100100 9
b100100 W
0*
b110 "
b110 E
b110 X
b1 -
b1 G
b110 C
b110 J
b110 N
b1 1
b1 O
b1 \
b101 2
b101 H
b101 ]
#3660000
1#
#3720000
b11111 '
0#
#3723000
bx0xxx00 @
bx0xxx00 V
bx0xxx00 b
b100 "
b100 E
b100 X
b100 C
b100 J
b100 N
bx ,
bx M
bx ^
b110 D
b110 I
b110 L
b11000010010000000110001100 ?
b11000010010000000110001100 _
b11001011000 8
b11001011000 K
b1100 /
b1100 Y
b1100 5
b1100 [
b11001011000010010000000110001100 >
b11001011000010010000000110001100 T
b100100 !
b100100 F
b100100 S
b100100 U
#3725000
b101100 7
b101000 9
b101000 W
b1001 "
b1001 E
b1001 X
b1001 C
b1001 J
b1001 N
b1010 2
b1010 H
b1010 ]
#3780000
1#
#3840000
b100000 '
0#
#3843000
b11100 6
b1111111111111111111111111111111111111111111111111111111111111101 @
b1111111111111111111111111111111111111111111111111111111111111101 V
b1111111111111111111111111111111111111111111111111111111111111101 b
1a
bx01 -
bx01 G
b0x00x "
b0x00x E
b0x00x X
1)
b10 ,
b10 M
b10 ^
bx D
bx I
bx L
00
xB
x=
xA
1+
x3
b111x1 .
b111x1 Z
b11 :
b11 `
b11111111111111111111111101 ?
b11111111111111111111111101 _
b10111111 8
b10111111 K
b11111 /
b11111 Y
b11101 5
b11101 [
b10111111111111111111111111101 >
b10111111111111111111111111101 T
b101000 !
b101000 F
b101000 S
b101000 U
#3845000
b100000 6
b110000 7
b101100 9
b101100 W
bx -
bx G
bx 1
bx O
bx \
b0 2
b0 H
b0 ]
#3846000
b10000 6
b100000 7
b11100 9
b11100 W
#3900000
1#
#3960000
b100001 '
0#
#3963000
b101100 6
b100 @
b100 V
b100 b
0a
x*
bx "
bx E
bx X
bx C
bx J
bx N
x)
b11 ,
b11 M
b11 ^
b111 D
b111 I
b111 L
0B
1A
0+
13
b1100 .
b1100 Z
b0 :
b0 `
b10001100 ?
b10001100 _
b10110100000 8
b10110100000 K
b100 /
b100 Y
b1100 5
b1100 [
b10110100000000000000000010001100 >
b10110100000000000000000010001100 T
b11100 !
b11100 F
b11100 S
b11100 U
#3965000
b110000 6
b100100 7
b100000 9
b100000 W
0)
0*
b0x00x "
b0x00x E
b0x00x X
b1001 C
b1001 J
b1001 N
b1001 -
b1001 G
b1001 1
b1001 O
b1001 \
bx 2
bx H
bx ]
#3966000
b100000 6
b10100 7
b10000 9
b10000 W
#3967000
b110000 6
b100100 7
b100000 9
b100000 W
#4020000
1#
#4080000
b100010 '
0#
#4083000
bx 6
x*
bx0x @
bx0x V
bx0x b
xa
bx C
bx J
bx N
bx "
bx E
bx X
bz ,
bz M
bz ^
b10 D
b10 I
b10 L
10
0=
0A
03
b1001 .
b1001 Z
b11000010010000000110101101 ?
b11000010010000000110101101 _
b10001011000 8
b10001011000 K
b1101 /
b1101 Y
b1101 5
b1101 [
b10001011000010010000000110101101 >
b10001011000010010000000110101101 T
b100000 !
b100000 F
b100000 S
b100000 U
#4085000
b101000 7
b100100 9
b100100 W
0*
b111 "
b111 E
b111 X
b1 -
b1 G
b111 C
b111 J
b111 N
b1 1
b1 O
b1 \
b110 2
b110 H
b110 ]
#4140000
1#
#4200000
b100011 '
0#
#4203000
bx0xxx00 @
bx0xxx00 V
bx0xxx00 b
b101 "
b101 E
b101 X
b101 C
b101 J
b101 N
bx ,
bx M
bx ^
b110 D
b110 I
b110 L
b11000010010000000110001100 ?
b11000010010000000110001100 _
b11001011000 8
b11001011000 K
b1100 /
b1100 Y
b1100 5
b1100 [
b11001011000010010000000110001100 >
b11001011000010010000000110001100 T
b100100 !
b100100 F
b100100 S
b100100 U
#4205000
b101100 7
b101000 9
b101000 W
b1000 "
b1000 E
b1000 X
b1000 C
b1000 J
b1000 N
b1001 2
b1001 H
b1001 ]
#4260000
1#
#4320000
b100100 '
0#
